INDEX VERSION 1.131+C:\DAWAN\Formations\Java\EE\jpa_hibernate\workspace\.metadata\.plugins\org.eclipse.jdt.core
1865797976.index
3514042808.index
400242262.index
2850127368.index
505629044.index
2232106080.index
3045698551.index
2459499989.index
3880960311.index
2250315838.index
4130693925.index
301037089.index
1251812827.index
1658626707.index
569473813.index
1627702867.index
3919291574.index
1845945420.index
1192959738.index
106909243.index
184073912.index
2125410470.index
2187174002.index
2211280890.index
3631956367.index
472270521.index
477683234.index
442829489.index
2917076794.index
3511746309.index
3151247809.index
3247714145.index
1401289889.index
953679710.index
3651604728.index
634894461.index
93839677.index
2416965330.index
4176910780.index
1626790651.index
1668969768.index
1752724929.index
3588052399.index
4242060535.index
4113679256.index
1859466086.index
2104014157.index
2506960655.index
1780716493.index
522788896.index
3970603286.index
1972515314.index
3389102543.index
626973151.index
3556748512.index
1128868944.index
4164645456.index
2442067737.index
3023570919.index
953514115.index
3495405030.index
2807547996.index
2835980208.index
2119373523.index
4077826123.index
2349154716.index
888192782.index
118080218.index
1924466756.index
124260512.index
2189024566.index
3581585723.index
2839561296.index
246376414.index
3963690913.index
3555331257.index
4084365294.index
3514702532.index
890758196.index
2319295263.index
1704045036.index
1910172386.index
1216307655.index
3533129976.index
3750855144.index
2288170485.index
478913460.index
1051518842.index
2141796027.index
909488475.index
2961241257.index
2877735234.index
